00857145/ripple_4bit_UP_counter/simulation/qsim/ripple_4bit_UP_counter.msim.vcd
$comment
	File created using the following command:
		vcd file ripple_4bit_UP_counter.msim.vcd -direction
$end
$date
	Tue May 12 15:43:54 2020
$end
$version
	ModelSim Version 10.1d
$end
$timescale
	1ps
$end
$scope module sametime_counter_12bit_vlg_vec_tst $end
$var reg 1 ! CLK $end
$var reg 1 " EN $end
$var wire 1 # A $end
$var wire 1 $ B $end
$var wire 1 % C $end
$var wire 1 & CAS $end
$var wire 1 ' D $end
$var wire 1 ( E $end
$var wire 1 ) F $end
$var wire 1 * G $end
$var wire 1 + H $end
$var wire 1 , I $end
$var wire 1 - J $end
$var wire 1 . K $end
$var wire 1 / L $end
$var wire 1 0 sampler $end
$scope module i1 $end
$var wire 1 1 gnd $end
$var wire 1 2 vcc $end
$var wire 1 3 unknown $end
$var tri1 1 4 devclrn $end
$var tri1 1 5 devpor $end
$var tri1 1 6 devoe $end
$var wire 1 7 A~output_o $end
$var wire 1 8 B~output_o $end
$var wire 1 9 C~output_o $end
$var wire 1 : D~output_o $end
$var wire 1 ; E~output_o $end
$var wire 1 < F~output_o $end
$var wire 1 = G~output_o $end
$var wire 1 > H~output_o $end
$var wire 1 ? I~output_o $end
$var wire 1 @ J~output_o $end
$var wire 1 A K~output_o $end
$var wire 1 B L~output_o $end
$var wire 1 C CAS~output_o $end
$var wire 1 D CLK~input_o $end
$var wire 1 E EN~input_o $end
$var wire 1 F inst|inst~0_combout $end
$var wire 1 G inst|inst~q $end
$var wire 1 H inst|inst1~0_combout $end
$var wire 1 I inst|inst1~q $end
$var wire 1 J inst|inst2~0_combout $end
$var wire 1 K inst|inst2~q $end
$var wire 1 L inst|inst6~combout $end
$var wire 1 M inst|inst3~0_combout $end
$var wire 1 N inst|inst3~q $end
$var wire 1 O inst1|inst~0_combout $end
$var wire 1 P inst1|inst~q $end
$var wire 1 Q inst1|inst1~0_combout $end
$var wire 1 R inst1|inst1~q $end
$var wire 1 S inst1|inst5~combout $end
$var wire 1 T inst1|inst2~0_combout $end
$var wire 1 U inst1|inst2~q $end
$var wire 1 V inst1|inst3~0_combout $end
$var wire 1 W inst1|inst3~q $end
$var wire 1 X inst2|inst~0_combout $end
$var wire 1 Y inst2|inst~q $end
$var wire 1 Z inst2|inst4~0_combout $end
$var wire 1 [ inst2|inst4~combout $end
$var wire 1 \ inst2|inst1~0_combout $end
$var wire 1 ] inst2|inst1~q $end
$var wire 1 ^ inst2|inst2~0_combout $end
$var wire 1 _ inst2|inst2~q $end
$var wire 1 ` inst2|inst3~0_combout $end
$var wire 1 a inst2|inst3~q $end
$var wire 1 b inst2|inst7~combout $end
$upscope $end
$upscope $end
$enddefinitions $end
#0
$dumpvars
0!
1"
0#
0$
0%
0&
0'
0(
0)
0*
0+
0,
0-
0.
0/
x0
01
12
x3
14
15
16
07
08
09
0:
0;
0<
0=
0>
0?
0@
0A
0B
0C
0D
1E
1F
0G
0H
0I
0J
0K
0L
0M
0N
0O
0P
0Q
0R
0S
0T
0U
0V
0W
0X
0Y
0Z
0[
0\
0]
0^
0_
0`
0a
0b
$end
#5000
1!
1D
00
1G
1H
0F
17
1#
#10000
0!
0D
10
#15000
1!
1D
00
1I
0G
1F
18
07
1$
0#
#20000
0!
0D
10
#25000
1!
1D
00
1G
1J
0H
0F
17
1#
#30000
0!
0D
10
#35000
1!
1D
00
1K
0I
0G
1F
19
08
07
1%
0$
0#
#40000
0!
0D
10
#45000
1!
1D
00
1G
1H
0F
17
1#
#50000
0!
0D
10
#55000
1!
1D
00
1I
0G
1F
18
07
1$
0#
#60000
0!
0D
10
#65000
1!
1D
00
1G
1L
0J
0H
0F
17
1#
1M
#70000
0!
0D
10
#75000
1!
1D
00
1N
0K
0I
0G
1O
0M
0L
1F
1:
09
08
07
1'
0%
0$
0#
0O
1M
#80000
0!
0D
10
#85000
1!
1D
00
1G
1H
0F
17
1#
#90000
0!
0D
10
#95000
1!
1D
00
1I
0G
1F
18
07
1$
0#
#100000
0!
0D
10
#105000
1!
1D
00
1G
1J
0H
0F
17
1#
#110000
0!
0D
10
#115000
1!
1D
00
1K
0I
0G
1F
19
08
07
1%
0$
0#
#120000
0!
0D
10
#125000
1!
1D
00
1G
1H
0F
17
1#
#130000
0!
0D
10
#135000
1!
1D
00
1I
0G
1F
18
07
1$
0#
#140000
0!
0D
10
#145000
1!
1D
00
1G
1L
0J
0H
0F
17
1#
1O
0M
#150000
0!
0D
10
#155000
1!
1D
00
1P
0N
0K
0I
0G
1M
0L
1F
1;
0:
09
08
07
1(
0'
0%
0$
0#
0M
#160000
0!
0D
10
#165000
1!
1D
00
1G
1H
0F
17
1#
#170000
0!
0D
10
#175000
1!
1D
00
1I
0G
1F
18
07
1$
0#
#180000
0!
0D
10
#185000
1!
1D
00
1G
1J
0H
0F
17
1#
#190000
0!
0D
10
#195000
1!
1D
00
1K
0I
0G
1F
19
08
07
1%
0$
0#
#200000
0!
0D
10
#205000
1!
1D
00
1G
1H
0F
17
1#
#210000
0!
0D
10
#215000
1!
1D
00
1I
0G
1F
18
07
1$
0#
#220000
0!
0D
10
#225000
1!
1D
00
1G
1L
0J
0H
0F
17
1#
1M
#230000
0!
0D
10
#235000
1!
1D
00
1N
0K
0I
0G
1Q
0O
0M
0L
1F
1:
09
08
07
1'
0%
0$
0#
0Q
1O
1M
#240000
0!
0D
10
#245000
1!
1D
00
1G
1H
0F
17
1#
#250000
0!
0D
10
#255000
1!
1D
00
1I
0G
1F
18
07
1$
0#
#260000
0!
0D
10
#265000
1!
1D
00
1G
1J
0H
0F
17
1#
#270000
0!
0D
10
#275000
1!
1D
00
1K
0I
0G
1F
19
08
07
1%
0$
0#
#280000
0!
0D
10
#285000
1!
1D
00
1G
1H
0F
17
1#
#290000
0!
0D
10
#295000
1!
1D
00
1I
0G
1F
18
07
1$
0#
#300000
0!
0D
10
#305000
1!
1D
00
1G
1L
0J
0H
0F
17
1#
1Q
0O
0M
#310000
0!
0D
10
#315000
1!
1D
00
1R
0P
0N
0K
0I
0G
1M
0L
1F
1<
0;
0:
09
08
07
1)
0(
0'
0%
0$
0#
0M
#320000
0!
0D
10
#325000
1!
1D
00
1G
1H
0F
17
1#
#330000
0!
0D
10
#335000
1!
1D
00
1I
0G
1F
18
07
1$
0#
#340000
0!
0D
10
#345000
1!
1D
00
1G
1J
0H
0F
17
1#
#350000
0!
0D
10
#355000
1!
1D
00
1K
0I
0G
1F
19
08
07
1%
0$
0#
#360000
0!
0D
10
#365000
1!
1D
00
1G
1H
0F
17
1#
#370000
0!
0D
10
#375000
1!
1D
00
1I
0G
1F
18
07
1$
0#
#380000
0!
0D
10
#385000
1!
1D
00
1G
1L
0J
0H
0F
17
1#
1M
#390000
0!
0D
10
#395000
1!
1D
00
1N
0K
0I
0G
1O
0M
0L
1F
1:
09
08
07
1'
0%
0$
0#
0O
1M
#400000
0!
0D
10
#405000
1!
1D
00
1G
1H
0F
17
1#
#410000
0!
0D
10
#415000
1!
1D
00
1I
0G
1F
18
07
1$
0#
#420000
0!
0D
10
#425000
1!
1D
00
1G
1J
0H
0F
17
1#
#430000
0!
0D
10
#435000
1!
1D
00
1K
0I
0G
1F
19
08
07
1%
0$
0#
#440000
0!
0D
10
#445000
1!
1D
00
1G
1H
0F
17
1#
#450000
0!
0D
10
#455000
1!
1D
00
1I
0G
1F
18
07
1$
0#
#460000
0!
0D
10
#465000
1!
1D
00
1G
1L
0J
0H
0F
17
1#
1O
0M
#470000
0!
0D
10
#475000
1!
1D
00
1P
0N
0K
0I
0G
1M
0L
1F
1;
0:
09
08
07
1(
0'
0%
0$
0#
0M
#480000
0!
0D
10
#485000
1!
1D
00
1G
1H
0F
17
1#
#490000
0!
0D
10
#495000
1!
1D
00
1I
0G
1F
18
07
1$
0#
#500000
0!
0D
10
#505000
1!
1D
00
1G
1J
0H
0F
17
1#
#510000
0!
0D
10
#515000
1!
1D
00
1K
0I
0G
1F
19
08
07
1%
0$
0#
#520000
0!
0D
10
#525000
1!
1D
00
1G
1H
0F
17
1#
#530000
0!
0D
10
#535000
1!
1D
00
1I
0G
1F
18
07
1$
0#
#540000
0!
0D
10
#545000
1!
1D
00
1G
1L
0J
0H
0F
17
1#
1M
#550000
0!
0D
10
#555000
1!
1D
00
1N
0K
0I
0G
1S
0Q
0O
0M
0L
1F
1:
09
08
07
1'
0%
0$
0#
1T
0S
1Q
1O
1M
0T
#560000
0!
0D
10
#565000
1!
1D
00
1G
1H
0F
17
1#
#570000
0!
0D
10
#575000
1!
1D
00
1I
0G
1F
18
07
1$
0#
#580000
0!
0D
10
#585000
1!
1D
00
1G
1J
0H
0F
17
1#
#590000
0!
0D
10
#595000
1!
1D
00
1K
0I
0G
1F
19
08
07
1%
0$
0#
#600000
0!
0D
10
#605000
1!
1D
00
1G
1H
0F
17
1#
#610000
0!
0D
10
#615000
1!
1D
00
1I
0G
1F
18
07
1$
0#
#620000
0!
0D
10
#625000
1!
1D
00
1G
1L
0J
0H
0F
17
1#
1S
0Q
0O
0M
1T
#630000
0!
0D
10
#635000
1!
1D
00
1U
0R
0P
0N
0K
0I
0G
1V
0T
0S
1M
0L
1F
1=
0<
0;
0:
09
08
07
1*
0)
0(
0'
0%
0$
0#
0V
1T
0M
#640000
0!
0D
10
#645000
1!
1D
00
1G
1H
0F
17
1#
#650000
0!
0D
10
#655000
1!
1D
00
1I
0G
1F
18
07
1$
0#
#660000
0!
0D
10
#665000
1!
1D
00
1G
1J
0H
0F
17
1#
#670000
0!
0D
10
#675000
1!
1D
00
1K
0I
0G
1F
19
08
07
1%
0$
0#
#680000
0!
0D
10
#685000
1!
1D
00
1G
1H
0F
17
1#
#690000
0!
0D
10
#695000
1!
1D
00
1I
0G
1F
18
07
1$
0#
#700000
0!
0D
10
#705000
1!
1D
00
1G
1L
0J
0H
0F
17
1#
1M
#710000
0!
0D
10
#715000
1!
1D
00
1N
0K
0I
0G
1O
0M
0L
1F
1:
09
08
07
1'
0%
0$
0#
0O
1M
#720000
0!
0D
10
#725000
1!
1D
00
1G
1H
0F
17
1#
#730000
0!
0D
10
#735000
1!
1D
00
1I
0G
1F
18
07
1$
0#
#740000
0!
0D
10
#745000
1!
1D
00
1G
1J
0H
0F
17
1#
#750000
0!
0D
10
#755000
1!
1D
00
1K
0I
0G
1F
19
08
07
1%
0$
0#
#760000
0!
0D
10
#765000
1!
1D
00
1G
1H
0F
17
1#
#770000
0!
0D
10
#775000
1!
1D
00
1I
0G
1F
18
07
1$
0#
#780000
0!
0D
10
#785000
1!
1D
00
1G
1L
0J
0H
0F
17
1#
1O
0M
#790000
0!
0D
10
#795000
1!
1D
00
1P
0N
0K
0I
0G
1M
0L
1F
1;
0:
09
08
07
1(
0'
0%
0$
0#
0M
#800000
0!
0D
10
#805000
1!
1D
00
1G
1H
0F
17
1#
#810000
0!
0D
10
#815000
1!
1D
00
1I
0G
1F
18
07
1$
0#
#820000
0!
0D
10
#825000
1!
1D
00
1G
1J
0H
0F
17
1#
#830000
0!
0D
10
#835000
1!
1D
00
1K
0I
0G
1F
19
08
07
1%
0$
0#
#840000
0!
0D
10
#845000
1!
1D
00
1G
1H
0F
17
1#
#850000
0!
0D
10
#855000
1!
1D
00
1I
0G
1F
18
07
1$
0#
#860000
0!
0D
10
#865000
1!
1D
00
1G
1L
0J
0H
0F
17
1#
1M
#870000
0!
0D
10
#875000
1!
1D
00
1N
0K
0I
0G
1Q
0O
0M
0L
1F
1:
09
08
07
1'
0%
0$
0#
0Q
1O
1M
#880000
0!
0D
10
#885000
1!
1D
00
1G
1H
0F
17
1#
#890000
0!
0D
10
#895000
1!
1D
00
1I
0G
1F
18
07
1$
0#
#900000
0!
0D
10
#905000
1!
1D
00
1G
1J
0H
0F
17
1#
#910000
0!
0D
10
#915000
1!
1D
00
1K
0I
0G
1F
19
08
07
1%
0$
0#
#920000
0!
0D
10
#925000
1!
1D
00
1G
1H
0F
17
1#
#930000
0!
0D
10
#935000
1!
1D
00
1I
0G
1F
18
07
1$
0#
#940000
0!
0D
10
#945000
1!
1D
00
1G
1L
0J
0H
0F
17
1#
1Q
0O
0M
#950000
0!
0D
10
#955000
1!
1D
00
1R
0P
0N
0K
0I
0G
1M
0L
1F
1<
0;
0:
09
08
07
1)
0(
0'
0%
0$
0#
0M
#960000
0!
0D
10
#965000
1!
1D
00
1G
1H
0F
17
1#
#970000
0!
0D
10
#975000
1!
1D
00
1I
0G
1F
18
07
1$
0#
#980000
0!
0D
10
#985000
1!
1D
00
1G
1J
0H
0F
17
1#
#990000
0!
0D
10
#995000
1!
1D
00
1K
0I
0G
1F
19
08
07
1%
0$
0#
#1000000
0!
0D
10
#1005000
1!
1D
00
1G
1H
0F
17
1#
#1010000
0!
0D
10
#1015000
1!
1D
00
1I
0G
1F
18
07
1$
0#
#1020000
0!
0D
10
#1025000
1!
1D
00
1G
1L
0J
0H
0F
17
1#
1M
#1030000
0!
0D
10
#1035000
1!
1D
00
1N
0K
0I
0G
1O
0M
0L
1F
1:
09
08
07
1'
0%
0$
0#
0O
1M
#1040000
0!
0D
10
#1045000
1!
1D
00
1G
1H
0F
17
1#
#1050000
0!
0D
10
#1055000
1!
1D
00
1I
0G
1F
18
07
1$
0#
#1060000
0!
0D
10
#1065000
1!
1D
00
1G
1J
0H
0F
17
1#
#1070000
0!
0D
10
#1075000
1!
1D
00
1K
0I
0G
1F
19
08
07
1%
0$
0#
#1080000
0!
0D
10
#1085000
1!
1D
00
1G
1H
0F
17
1#
#1090000
0!
0D
10
#1095000
1!
1D
00
1I
0G
1F
18
07
1$
0#
#1100000
0!
0D
10
#1105000
1!
1D
00
1G
1L
0J
0H
0F
17
1#
1O
0M
#1110000
0!
0D
10
#1115000
1!
1D
00
1P
0N
0K
0I
0G
1M
0L
1F
1;
0:
09
08
07
1(
0'
0%
0$
0#
0M
#1120000
0!
0D
10
#1125000
1!
1D
00
1G
1H
0F
17
1#
#1130000
0!
0D
10
#1135000
1!
1D
00
1I
0G
1F
18
07
1$
0#
#1140000
0!
0D
10
#1145000
1!
1D
00
1G
1J
0H
0F
17
1#
#1150000
0!
0D
10
#1155000
1!
1D
00
1K
0I
0G
1F
19
08
07
1%
0$
0#
#1160000
0!
0D
10
#1165000
1!
1D
00
1G
1H
0F
17
1#
#1170000
0!
0D
10
#1175000
1!
1D
00
1I
0G
1F
18
07
1$
0#
#1180000
0!
0D
10
#1185000
1!
1D
00
1G
1L
0J
0H
0F
17
1#
1M
#1190000
0!
0D
10
#1195000
1!
1D
00
1N
0K
0I
0G
1S
0Q
0O
0M
0L
1F
1:
09
08
07
1'
0%
0$
0#
1V
0T
0S
1Q
1O
1M
0V
1T
#1200000
0!
0D
10
#1205000
1!
1D
00
1G
1H
0F
17
1#
#1210000
0!
0D
10
#1215000
1!
1D
00
1I
0G
1F
18
07
1$
0#
#1220000
0!
0D
10
#1225000
1!
1D
00
1G
1J
0H
0F
17
1#
#1230000
0!
0D
10
#1235000
1!
1D
00
1K
0I
0G
1F
19
08
07
1%
0$
0#
#1240000
0!
0D
10
#1245000
1!
1D
00
1G
1H
0F
17
1#
#1250000
0!
0D
10
#1255000
1!
1D
00
1I
0G
1F
18
07
1$
0#
#1260000
0!
0D
10
#1265000
1!
1D
00
1G
1L
0J
0H
0F
17
1#
1S
0Q
0O
0M
1V
0T
#1270000
0!
0D
10
#1275000
1!
1D
00
1W
0U
0R
0P
0N
0K
0I
0G
1T
0S
1M
0L
1F
1>
0=
0<
0;
0:
09
08
07
1+
0*
0)
0(
0'
0%
0$
0#
0T
0M
#1280000
0!
0D
10
#1285000
1!
1D
00
1G
1H
0F
17
1#
#1290000
0!
0D
10
#1295000
1!
1D
00
1I
0G
1F
18
07
1$
0#
#1300000
0!
0D
10
#1305000
1!
1D
00
1G
1J
0H
0F
17
1#
#1310000
0!
0D
10
#1315000
1!
1D
00
1K
0I
0G
1F
19
08
07
1%
0$
0#
#1320000
0!
0D
10
#1325000
1!
1D
00
1G
1H
0F
17
1#
#1330000
0!
0D
10
#1335000
1!
1D
00
1I
0G
1F
18
07
1$
0#
#1340000
0!
0D
10
#1345000
1!
1D
00
1G
1L
0J
0H
0F
17
1#
1M
#1350000
0!
0D
10
#1355000
1!
1D
00
1N
0K
0I
0G
1O
0M
0L
1F
1:
09
08
07
1'
0%
0$
0#
0O
1M
#1360000
0!
0D
10
#1365000
1!
1D
00
1G
1H
0F
17
1#
#1370000
0!
0D
10
#1375000
1!
1D
00
1I
0G
1F
18
07
1$
0#
#1380000
0!
0D
10
#1385000
1!
1D
00
1G
1J
0H
0F
17
1#
#1390000
0!
0D
10
#1395000
1!
1D
00
1K
0I
0G
1F
19
08
07
1%
0$
0#
#1400000
0!
0D
10
#1405000
1!
1D
00
1G
1H
0F
17
1#
#1410000
0!
0D
10
#1415000
1!
1D
00
1I
0G
1F
18
07
1$
0#
#1420000
0!
0D
10
#1425000
1!
1D
00
1G
1L
0J
0H
0F
17
1#
1O
0M
#1430000
0!
0D
10
#1435000
1!
1D
00
1P
0N
0K
0I
0G
1M
0L
1F
1;
0:
09
08
07
1(
0'
0%
0$
0#
0M
#1440000
0!
0D
10
#1445000
1!
1D
00
1G
1H
0F
17
1#
#1450000
0!
0D
10
#1455000
1!
1D
00
1I
0G
1F
18
07
1$
0#
#1460000
0!
0D
10
#1465000
1!
1D
00
1G
1J
0H
0F
17
1#
#1470000
0!
0D
10
#1475000
1!
1D
00
1K
0I
0G
1F
19
08
07
1%
0$
0#
#1480000
0!
0D
10
#1485000
1!
1D
00
1G
1H
0F
17
1#
#1490000
0!
0D
10
#1495000
1!
1D
00
1I
0G
1F
18
07
1$
0#
#1500000
0!
0D
10
#1505000
1!
1D
00
1G
1L
0J
0H
0F
17
1#
1M
#1510000
0!
0D
10
#1515000
1!
1D
00
1N
0K
0I
0G
1Q
0O
0M
0L
1F
1:
09
08
07
1'
0%
0$
0#
0Q
1O
1M
#1520000
0!
0D
10
#1525000
1!
1D
00
1G
1H
0F
17
1#
#1530000
0!
0D
10
#1535000
1!
1D
00
1I
0G
1F
18
07
1$
0#
#1540000
0!
0D
10
#1545000
1!
1D
00
1G
1J
0H
0F
17
1#
#1550000
0!
0D
10
#1555000
1!
1D
00
1K
0I
0G
1F
19
08
07
1%
0$
0#
#1560000
0!
0D
10
#1565000
1!
1D
00
1G
1H
0F
17
1#
#1570000
0!
0D
10
#1575000
1!
1D
00
1I
0G
1F
18
07
1$
0#
#1580000
0!
0D
10
#1585000
1!
1D
00
1G
1L
0J
0H
0F
17
1#
1Q
0O
0M
#1590000
0!
0D
10
#1595000
1!
1D
00
1R
0P
0N
0K
0I
0G
1M
0L
1F
1<
0;
0:
09
08
07
1)
0(
0'
0%
0$
0#
0M
#1600000
0!
0D
10
#1605000
1!
1D
00
1G
1H
0F
17
1#
#1610000
0!
0D
10
#1615000
1!
1D
00
1I
0G
1F
18
07
1$
0#
#1620000
0!
0D
10
#1625000
1!
1D
00
1G
1J
0H
0F
17
1#
#1630000
0!
0D
10
#1635000
1!
1D
00
1K
0I
0G
1F
19
08
07
1%
0$
0#
#1640000
0!
0D
10
#1645000
1!
1D
00
1G
1H
0F
17
1#
#1650000
0!
0D
10
#1655000
1!
1D
00
1I
0G
1F
18
07
1$
0#
#1660000
0!
0D
10
#1665000
1!
1D
00
1G
1L
0J
0H
0F
17
1#
1M
#1670000
0!
0D
10
#1675000
1!
1D
00
1N
0K
0I
0G
1O
0M
0L
1F
1:
09
08
07
1'
0%
0$
0#
0O
1M
#1680000
0!
0D
10
#1685000
1!
1D
00
1G
1H
0F
17
1#
#1690000
0!
0D
10
#1695000
1!
1D
00
1I
0G
1F
18
07
1$
0#
#1700000
0!
0D
10
#1705000
1!
1D
00
1G
1J
0H
0F
17
1#
#1710000
0!
0D
10
#1715000
1!
1D
00
1K
0I
0G
1F
19
08
07
1%
0$
0#
#1720000
0!
0D
10
#1725000
1!
1D
00
1G
1H
0F
17
1#
#1730000
0!
0D
10
#1735000
1!
1D
00
1I
0G
1F
18
07
1$
0#
#1740000
0!
0D
10
#1745000
1!
1D
00
1G
1L
0J
0H
0F
17
1#
1O
0M
#1750000
0!
0D
10
#1755000
1!
1D
00
1P
0N
0K
0I
0G
1M
0L
1F
1;
0:
09
08
07
1(
0'
0%
0$
0#
0M
#1760000
0!
0D
10
#1765000
1!
1D
00
1G
1H
0F
17
1#
#1770000
0!
0D
10
#1775000
1!
1D
00
1I
0G
1F
18
07
1$
0#
#1780000
0!
0D
10
#1785000
1!
1D
00
1G
1J
0H
0F
17
1#
#1790000
0!
0D
10
#1795000
1!
1D
00
1K
0I
0G
1F
19
08
07
1%
0$
0#
#1800000
0!
0D
10
#1805000
1!
1D
00
1G
1H
0F
17
1#
#1810000
0!
0D
10
#1815000
1!
1D
00
1I
0G
1F
18
07
1$
0#
#1820000
0!
0D
10
#1825000
1!
1D
00
1G
1L
0J
0H
0F
17
1#
1M
#1830000
0!
0D
10
#1835000
1!
1D
00
1N
0K
0I
0G
1S
0Q
0O
0M
0L
1F
1:
09
08
07
1'
0%
0$
0#
1T
0S
1Q
1O
1M
0T
#1840000
0!
0D
10
#1845000
1!
1D
00
1G
1H
0F
17
1#
#1850000
0!
0D
10
#1855000
1!
1D
00
1I
0G
1F
18
07
1$
0#
#1860000
0!
0D
10
#1865000
1!
1D
00
1G
1J
0H
0F
17
1#
#1870000
0!
0D
10
#1875000
1!
1D
00
1K
0I
0G
1F
19
08
07
1%
0$
0#
#1880000
0!
0D
10
#1885000
1!
1D
00
1G
1H
0F
17
1#
#1890000
0!
0D
10
#1895000
1!
1D
00
1I
0G
1F
18
07
1$
0#
#1900000
0!
0D
10
#1905000
1!
1D
00
1G
1L
0J
0H
0F
17
1#
1S
0Q
0O
0M
1T
#1910000
0!
0D
10
#1915000
1!
1D
00
1U
0R
0P
0N
0K
0I
0G
1X
0V
0T
0S
1M
0L
1F
1=
0<
0;
0:
09
08
07
1*
0)
0(
0'
0%
0$
0#
0X
1V
1T
0M
#1920000
0!
0D
10
#1925000
1!
1D
00
1G
1H
0F
17
1#
#1930000
0!
0D
10
#1935000
1!
1D
00
1I
0G
1F
18
07
1$
0#
#1940000
0!
0D
10
#1945000
1!
1D
00
1G
1J
0H
0F
17
1#
#1950000
0!
0D
10
#1955000
1!
1D
00
1K
0I
0G
1F
19
08
07
1%
0$
0#
#1960000
0!
0D
10
#1965000
1!
1D
00
1G
1H
0F
17
1#
#1970000
0!
0D
10
#1975000
1!
1D
00
1I
0G
1F
18
07
1$
0#
#1980000
0!
0D
10
#1985000
1!
1D
00
1G
1L
0J
0H
0F
17
1#
1M
#1990000
0!
0D
10
#1995000
1!
1D
00
1N
0K
0I
0G
1O
0M
0L
1F
1:
09
08
07
1'
0%
0$
0#
0O
1M
#2000000
0!
0D
10
#2005000
1!
1D
00
1G
1H
0F
17
1#
#2010000
0!
0D
10
#2015000
1!
1D
00
1I
0G
1F
18
07
1$
0#
#2020000
0!
0D
10
#2025000
1!
1D
00
1G
1J
0H
0F
17
1#
#2030000
0!
0D
10
#2035000
1!
1D
00
1K
0I
0G
1F
19
08
07
1%
0$
0#
#2040000
0!
0D
10
#2045000
1!
1D
00
1G
1H
0F
17
1#
#2050000
0!
0D
10
#2055000
1!
1D
00
1I
0G
1F
18
07
1$
0#
#2060000
0!
0D
10
#2065000
1!
1D
00
1G
1L
0J
0H
0F
17
1#
1O
0M
#2070000
0!
0D
10
#2075000
1!
1D
00
1P
0N
0K
0I
0G
1M
0L
1F
1;
0:
09
08
07
1(
0'
0%
0$
0#
0M
#2080000
0!
0D
10
#2085000
1!
1D
00
1G
1H
0F
17
1#
#2090000
0!
0D
10
#2095000
1!
1D
00
1I
0G
1F
18
07
1$
0#
#2100000
0!
0D
10
#2105000
1!
1D
00
1G
1J
0H
0F
17
1#
#2110000
0!
0D
10
#2115000
1!
1D
00
1K
0I
0G
1F
19
08
07
1%
0$
0#
#2120000
0!
0D
10
#2125000
1!
1D
00
1G
1H
0F
17
1#
#2130000
0!
0D
10
#2135000
1!
1D
00
1I
0G
1F
18
07
1$
0#
#2140000
0!
0D
10
#2145000
1!
1D
00
1G
1L
0J
0H
0F
17
1#
1M
#2150000
0!
0D
10
#2155000
1!
1D
00
1N
0K
0I
0G
1Q
0O
0M
0L
1F
1:
09
08
07
1'
0%
0$
0#
0Q
1O
1M
#2160000
0!
0D
10
#2165000
1!
1D
00
1G
1H
0F
17
1#
#2170000
0!
0D
10
#2175000
1!
1D
00
1I
0G
1F
18
07
1$
0#
#2180000
0!
0D
10
#2185000
1!
1D
00
1G
1J
0H
0F
17
1#
#2190000
0!
0D
10
#2195000
1!
1D
00
1K
0I
0G
1F
19
08
07
1%
0$
0#
#2200000
0!
0D
10
#2205000
1!
1D
00
1G
1H
0F
17
1#
#2210000
0!
0D
10
#2215000
1!
1D
00
1I
0G
1F
18
07
1$
0#
#2220000
0!
0D
10
#2225000
1!
1D
00
1G
1L
0J
0H
0F
17
1#
1Q
0O
0M
#2230000
0!
0D
10
#2235000
1!
1D
00
1R
0P
0N
0K
0I
0G
1M
0L
1F
1<
0;
0:
09
08
07
1)
0(
0'
0%
0$
0#
0M
#2240000
0!
0D
10
#2245000
1!
1D
00
1G
1H
0F
17
1#
#2250000
0!
0D
10
#2255000
1!
1D
00
1I
0G
1F
18
07
1$
0#
#2260000
0!
0D
10
#2265000
1!
1D
00
1G
1J
0H
0F
17
1#
#2270000
0!
0D
10
#2275000
1!
1D
00
1K
0I
0G
1F
19
08
07
1%
0$
0#
#2280000
0!
0D
10
#2285000
1!
1D
00
1G
1H
0F
17
1#
#2290000
0!
0D
10
#2295000
1!
1D
00
1I
0G
1F
18
07
1$
0#
#2300000
0!
0D
10
#2305000
1!
1D
00
1G
1L
0J
0H
0F
17
1#
1M
#2310000
0!
0D
10
#2315000
1!
1D
00
1N
0K
0I
0G
1O
0M
0L
1F
1:
09
08
07
1'
0%
0$
0#
0O
1M
#2320000
0!
0D
10
#2325000
1!
1D
00
1G
1H
0F
17
1#
#2330000
0!
0D
10
#2335000
1!
1D
00
1I
0G
1F
18
07
1$
0#
#2340000
0!
0D
10
#2345000
1!
1D
00
1G
1J
0H
0F
17
1#
#2350000
0!
0D
10
#2355000
1!
1D
00
1K
0I
0G
1F
19
08
07
1%
0$
0#
#2360000
0!
0D
10
#2365000
1!
1D
00
1G
1H
0F
17
1#
#2370000
0!
0D
10
#2375000
1!
1D
00
1I
0G
1F
18
07
1$
0#
#2380000
0!
0D
10
#2385000
1!
1D
00
1G
1L
0J
0H
0F
17
1#
1O
0M
#2390000
0!
0D
10
#2395000
1!
1D
00
1P
0N
0K
0I
0G
1M
0L
1F
1;
0:
09
08
07
1(
0'
0%
0$
0#
0M
#2400000
0!
0D
10
#2405000
1!
1D
00
1G
1H
0F
17
1#
#2410000
0!
0D
10
#2415000
1!
1D
00
1I
0G
1F
18
07
1$
0#
#2420000
0!
0D
10
#2425000
1!
1D
00
1G
1J
0H
0F
17
1#
#2430000
0!
0D
10
#2435000
1!
1D
00
1K
0I
0G
1F
19
08
07
1%
0$
0#
#2440000
0!
0D
10
#2445000
1!
1D
00
1G
1H
0F
17
1#
#2450000
0!
0D
10
#2455000
1!
1D
00
1I
0G
1F
18
07
1$
0#
#2460000
0!
0D
10
#2465000
1!
1D
00
1G
1L
0J
0H
0F
17
1#
1M
#2470000
0!
0D
10
#2475000
1!
1D
00
1N
0K
0I
0G
1S
0Q
0O
0M
0L
1F
1:
09
08
07
1'
0%
0$
0#
1X
0V
0T
0S
1Q
1O
1M
0X
1V
1T
#2480000
0!
0D
10
#2485000
1!
1D
00
1G
1H
0F
17
1#
#2490000
0!
0D
10
#2495000
1!
1D
00
1I
0G
1F
18
07
1$
0#
#2500000
0!
0D
10
#2505000
1!
1D
00
1G
1J
0H
0F
17
1#
#2510000
0!
0D
10
#2515000
1!
1D
00
1K
0I
0G
1F
19
08
07
1%
0$
0#
#2520000
0!
0D
10
#2525000
1!
1D
00
1G
1H
0F
17
1#
#2530000
0!
0D
10
#2535000
1!
1D
00
1I
0G
1F
18
07
1$
0#
#2540000
0!
0D
10
#2545000
1!
1D
00
1G
1L
0J
0H
0F
17
1#
1S
0Q
0O
0M
1X
0V
0T
#2550000
0!
0D
10
#2555000
1!
1D
00
1Y
0W
0U
0R
0P
0N
0K
0I
0G
1T
0S
1M
0L
1F
1?
0>
0=
0<
0;
0:
09
08
07
1,
0+
0*
0)
0(
0'
0%
0$
0#
0T
0M
#2560000
0!
0D
10
#2565000
1!
1D
00
1G
1H
0F
17
1#
#2570000
0!
0D
10
#2575000
1!
1D
00
1I
0G
1F
18
07
1$
0#
#2580000
0!
0D
10
#2585000
1!
1D
00
1G
1J
0H
0F
17
1#
#2590000
0!
0D
10
#2595000
1!
1D
00
1K
0I
0G
1F
19
08
07
1%
0$
0#
#2600000
0!
0D
10
#2605000
1!
1D
00
1G
1H
0F
17
1#
#2610000
0!
0D
10
#2615000
1!
1D
00
1I
0G
1F
18
07
1$
0#
#2620000
0!
0D
10
#2625000
1!
1D
00
1G
1L
0J
0H
0F
17
1#
1M
#2630000
0!
0D
10
#2635000
1!
1D
00
1N
0K
0I
0G
1O
0M
0L
1F
1:
09
08
07
1'
0%
0$
0#
0O
1M
#2640000
0!
0D
10
#2645000
1!
1D
00
1G
1H
0F
17
1#
#2650000
0!
0D
10
#2655000
1!
1D
00
1I
0G
1F
18
07
1$
0#
#2660000
0!
0D
10
#2665000
1!
1D
00
1G
1J
0H
0F
17
1#
#2670000
0!
0D
10
#2675000
1!
1D
00
1K
0I
0G
1F
19
08
07
1%
0$
0#
#2680000
0!
0D
10
